Lab 8 Machine Learning hyperparameter-tuning – csu-ess-lab6
…
6 Check the skill of the tuned model

collect_metrics(model_params) |> 
  arrange(mean)

# A tibble: 75 × 9
    mtry trees min_n .metric .estimator  mean     n std_err .config             
   <int> <int> <int> <chr>   <chr>      <dbl> <int>   <dbl> <chr>               
 1    15   127     7 mae     standard   0.115    10 0.0101  Preprocessor1_Model…
 2    14   184     4 mae     standard   0.120    10 0.0123  Preprocessor1_Model…
 3    14   152     4 mae     standard   0.120    10 0.00997 Preprocessor1_Model…
 4    13   149     3 mae     standard   0.121    10 0.0102  Preprocessor1_Model…
 5    13   192     4 mae     standard   0.125    10 0.0125  Preprocessor1_Model…
 6    12   102     8 mae     standard   0.132    10 0.0127  Preprocessor1_Model…
 7    12   134     7 mae     standard   0.133    10 0.0139  Preprocessor1_Model…
 8    11   162     3 mae     standard   0.135    10 0.0137  Preprocessor1_Model…
 9    11    71     6 mae     standard   0.139    10 0.0128  Preprocessor1_Model…
10     9   132     7 mae     standard   0.147    10 0.0126  Preprocessor1_Model…
# ℹ 65 more rows
…
